…
nuclear_accidents <- nuclear_accidents %>% 
  mutate(Year = Date %>% mdy() %>% year(),
         InEurope = if_else(Region %in% c("EE", "WE"), T, F) %>% as.factor()) %>% 
  filter(Year %>% between(1989, 2016))

This can be achieved by several ways. One common path would be:

nuclear_accidents %>% 
  group_by(Year, InEurope) %>% 
  summarise(N = n()) %>% 
  group_by(Year) %>% 
  mutate(Total_per_year = sum(N), 
         Ratio = N/Total_per_year)

## # A tibble: 40 x 5
## # Groups:   Year [24]
##     Year InEurope     N Total_per_year Ratio
##    <dbl> <fct>    <int>          <int> <dbl>
##  1  1989 FALSE        4              6 0.667
##  2  1989 TRUE         2              6 0.333
##  3  1990 FALSE        1              1 1    
##  4  1991 FALSE        3              3 1    
##  5  1992 FALSE        3              4 0.75 
##  6  1992 TRUE         1              4 0.25 
##  7  1993 FALSE        5              6 0.833
##  8  1993 TRUE         1              6 0.167
##  9  1995 FALSE        4              4 1    
## 10  1996 FALSE        5              5 1    
## # ... with 30 more rows

Another one more bizarre would be totalizing first, then grouping including that amount (to avoid being dropped) and then summarise.

nuclear_accidents %>% 
  group_by(Year) %>% 
  mutate(Total_per_year = n()) %>% 
  group_by(Year, InEurope, Total_per_year) %>% 
  summarise(N = n()) %>% 
  mutate(Ratio = N/Total_per_year)

## # A tibble: 40 x 5
## # Groups:   Year, InEurope [40]
##     Year InEurope Total_per_year     N Ratio
##    <dbl> <fct>             <int> <int> <dbl>
##  1  1989 FALSE                 6     4 0.667
##  2  1989 TRUE                  6     2 0.333
##  3  1990 FALSE                 1     1 1    
##  4  1991 FALSE                 3     3 1    
##  5  1992 FALSE                 4     3 0.75 
##  6  1992 TRUE                  4     1 0.25 
##  7  1993 FALSE                 6     5 0.833
##  8  1993 TRUE                  6     1 0.167
##  9  1995 FALSE                 4     4 1    
## 10  1996 FALSE                 5     5 1    
## # ... with 30 more rows

Kind of weird.
However, there is a much simpler way:

nuclear_accidents %>% 
  group_by(Year, InEurope) %>%
  summarize(N = n()) %>%
  mutate(Percentage = N / sum(N) * 100) 

## # A tibble: 40 x 4
## # Groups:   Year [24]
##     Year InEurope     N Percentage
##    <dbl> <fct>    <int>      <dbl>
##  1  1989 FALSE        4       66.7
##  2  1989 TRUE         2       33.3
##  3  1990 FALSE        1      100  
##  4  1991 FALSE        3      100  
##  5  1992 FALSE        3       75  
##  6  1992 TRUE         1       25  
##  7  1993 FALSE        5       83.3
##  8  1993 TRUE         1       16.7
##  9  1995 FALSE        4      100  
## 10  1996 FALSE        5      100  
## # ... with 30 more rows

The first time I saw this result I didn’t understand it because if you have your dataframe grouped by Year and InEurope then sum(N) should be equal to N.
What is going on?
This behaviour has to do with a tricky funcionality of summarise.

Take a closer look of the grouping variables.
Before the summarise function the dataframe seems grouped normally and the operation will be performed within each group:

nuclear_accidents %>% 
  group_by(Year, InEurope) 

## # A tibble: 103 x 10
## # Groups:   Year, InEurope [40]
##    Date  Location `Cost (millions~  INES `Smyth Magnitud~ Region Description
##    <chr> <chr>               <dbl> <dbl>            <dbl> <chr>  <chr>      
##  1 3/11~ Fukushi~          166089      7              7.5 A      An earthqu~
##  2 12/8~ Tsuruga~           15500     NA             NA   A      Japan's on~
##  3 12/1~ Vandell~             931.     3             NA   WE     A fire at ~
##  4 2/1/~ Vernon,~             809.    NA             NA   <NA>   Undergroun~
##  5 4/19~ Seascal~             599.     3             NA   WE     20 metric ~
##  6 9/2/~ Crystal~             444.    NA             NA   <NA>   Balance-of~
##  7 2/2/~ Kota, R~             323.    NA             NA   A      The Rajast~
##  8 2/20~ Waterfo~             293.    NA             NA   <NA>   Leaking va~
##  9 3/31~ Bulands~             255.    NA             NA   A      The Narora~
## 10 7/4/~ Hamburg~             243.    NA             NA   WE     A short ci~
## # ... with 93 more rows, and 3 more variables: Fatalities <dbl>, Year <dbl>,
## #   InEurope <fct>

However, once the dataframe is summarized, the resulting dataframe is no longer grouped by the same original variables:

nuclear_accidents %>% 
  group_by(Year, InEurope) %>%
  summarize(N = n())

## # A tibble: 40 x 3
## # Groups:   Year [24]
##     Year InEurope     N
##    <dbl> <fct>    <int>
##  1  1989 FALSE        4
##  2  1989 TRUE         2
##  3  1990 FALSE        1
##  4  1991 FALSE        3
##  5  1992 FALSE        3
##  6  1992 TRUE         1
##  7  1993 FALSE        5
##  8  1993 TRUE         1
##  9  1995 FALSE        4
## 10  1996 FALSE        5
## # ... with 30 more rows
…
