Scraping financial data from finviz with R and rvest package | TypeThePipe
…
Perfect! Finally pasting all the info together, we get this fine data frame containing all the information:

finviz_df <- tibble(value = values) %>%
  bind_cols(variable = headers, .) %>% 
  bind_rows(sector_df, .)

finviz_df

## # A tibble: 76 × 2
##    variable   value                    
##    <chr>      <chr>                    
##  1 ticker     MSFT                     
##  2 sector     Technology               
##  3 industry   Software - Infrastructure
##  4 country    USA                      
##  5 Index      DJIA, NDX, S&P 500       
##  6 Market Cap 1970.40B                 
##  7 Income     67.45B                   
##  8 Sales      204.09B                  
##  9 Book/sh    24.58                    
## 10 Cash/sh    13.17                    
## # … with 66 more rows
…
